%YAML 1.1
%TAG !u! tag:unity3d.com,2011:
--- !u!114 &11400000
MonoBehaviour:
  m_ObjectHideFlags: 0
  m_CorrespondingSourceObject: {fileID: 0}
  m_PrefabInstance: {fileID: 0}
  m_PrefabAsset: {fileID: 0}
  m_GameObject: {fileID: 0}
  m_Enabled: 1
  m_EditorHideFlags: 0
  m_Script: {fileID: 11500000, guid: 2fbb2be698c926948831ff4e8f1d7162, type: 3}
  m_Name: Session20200120094259_GR NatureManufacture
  m_EditorClassIdentifier: 
  m_resourcesID: 6e5e94a3-b3da-47a9-8315-893d5692fcfb
  m_name: Nature Manufacture Resources
  m_seaLevel: 50
  m_beachHeight: 2
  m_terrainHeight: 1000
  m_texturePrototypes:
  - m_name: T_Ground_Sand_02_A_Sm
    m_texture: {fileID: 2800000, guid: ae548727ed0abc645ad76b70534ca74f, type: 3}
    m_textureFileName: T_Ground_Sand_02_A_Sm.tga
    m_normal: {fileID: 2800000, guid: 78e598f8d69ec7e4cb840837fea58ed0, type: 3}
    m_normalFileName: T_Ground_Sand_02_N.png
    m_sizeX: 8
    m_sizeY: 8
    m_offsetX: 0
    m_offsetY: 0
    m_metalic: 0.41
    m_smoothness: 0
    m_spawnCriteria:
    - m_name: 
      m_checkType: 0
      m_virginTerrain: 0
      m_checkHeight: 1
      m_minHeight: -50
      m_maxHeight: 950
      m_heightFitness:
        serializedVersion: 2
        m_Curve:
        - serializedVersion: 3
          time: 0
          value: 1
          inSlope: 0
          outSlope: 0
          tangentMode: 0
          weightedMode: 0
          inWeight: 0.33333334
          outWeight: 0.33333334
        - serializedVersion: 3
          time: 1
          value: 1
          inSlope: 0
          outSlope: 0
          tangentMode: 0
          weightedMode: 0
          inWeight: 0.33333334
          outWeight: 0.33333334
        m_PreInfinity: 2
        m_PostInfinity: 2
        m_RotationOrder: 4
      m_checkSlope: 0
      m_minSlope: 0
      m_maxSlope: 90
      m_slopeFitness:
        serializedVersion: 2
        m_Curve:
        - serializedVersion: 3
          time: 0
          value: 0
          inSlope: 0
          outSlope: 0
          tangentMode: 0
          weightedMode: 0
          inWeight: 0.33333334
          outWeight: 0.33333334
        - serializedVersion: 3
          time: 1
          value: 1
          inSlope: 0
          outSlope: 0
          tangentMode: 0
          weightedMode: 0
          inWeight: 0.33333334
          outWeight: 0.33333334
        m_PreInfinity: 2
        m_PostInfinity: 2
        m_RotationOrder: 4
      m_checkProximity: 0
      m_proximityTag: House
      m_minProximity: 0
      m_maxProximity: 100
      m_proximityFitness:
        serializedVersion: 2
        m_Curve:
        - serializedVersion: 3
          time: 0
          value: 0.00000017881393
          inSlope: 0
          outSlope: 0
          tangentMode: 0
          weightedMode: 0
          inWeight: 0.33333334
          outWeight: 0.33333334
        - serializedVersion: 3
          time: 0.49818182
          value: 1
          inSlope: 0
          outSlope: 0
          tangentMode: 0
          weightedMode: 0
          inWeight: 0.33333334
          outWeight: 0.33333334
        - serializedVersion: 3
          time: 1
          value: -0.001267314
          inSlope: 0
          outSlope: 0
          tangentMode: 0
          weightedMode: 0
          inWeight: 0.33333334
          outWeight: 0.33333334
        m_PreInfinity: 2
        m_PostInfinity: 2
        m_RotationOrder: 4
      m_checkTexture: 0
      m_matchingTextures: '!3'
      m_isActive: 1
    m_spawnExtensions: []
  - m_name: T_ground_grass_01_A_SM
    m_texture: {fileID: 2800000, guid: f9201c5f8c4e7b542b1eafa168ed4560, type: 3}
    m_textureFileName: T_ground_grass_01_A_SM.tga
    m_normal: {fileID: 2800000, guid: 7c5817f41e3535a409132646f777d88f, type: 3}
    m_normalFileName: T_ground_grass_01_N.png
    m_sizeX: 5
    m_sizeY: 5
    m_offsetX: 0
    m_offsetY: 0
    m_metalic: 0.41
    m_smoothness: 0
    m_spawnCriteria:
    - m_name: 
      m_checkType: 0
      m_virginTerrain: 0
      m_checkHeight: 1
      m_minHeight: 1
      m_maxHeight: 950
      m_heightFitness:
        serializedVersion: 2
        m_Curve:
        - serializedVersion: 3
          time: 0
          value: 0
          inSlope: 0
          outSlope: 0
          tangentMode: 0
          weightedMode: 0
          inWeight: 0.33333334
          outWeight: 0.33333334
        - serializedVersion: 3
          time: 0.010599647
          value: 1.006993
          inSlope: 0
          outSlope: 0
          tangentMode: 0
          weightedMode: 0
          inWeight: 0.33333334
          outWeight: 0.33333334
        - serializedVersion: 3
          time: 1
          value: 1
          inSlope: 0
          outSlope: 0
          tangentMode: 0
          weightedMode: 0
          inWeight: 0.33333334
          outWeight: 0.33333334
        m_PreInfinity: 2
        m_PostInfinity: 2
        m_RotationOrder: 4
      m_checkSlope: 0
      m_minSlope: 0
      m_maxSlope: 90
      m_slopeFitness:
        serializedVersion: 2
        m_Curve:
        - serializedVersion: 3
          time: 0
          value: 1
          inSlope: 0
          outSlope: 0
          tangentMode: 0
          weightedMode: 0
          inWeight: 0.33333334
          outWeight: 0.33333334
        - serializedVersion: 3
          time: 1
          value: 0
          inSlope: 0
          outSlope: 0
          tangentMode: 0
          weightedMode: 0
          inWeight: 0.33333334
          outWeight: 0.33333334
        m_PreInfinity: 2
        m_PostInfinity: 2
        m_RotationOrder: 4
      m_checkProximity: 0
      m_proximityTag: 
      m_minProximity: 0
      m_maxProximity: 100
      m_proximityFitness:
        serializedVersion: 2
        m_Curve:
        - serializedVersion: 3
          time: 0
          value: 1
          inSlope: 0
          outSlope: 0
          tangentMode: 0
          weightedMode: 0
          inWeight: 0.33333334
          outWeight: 0.33333334
        - serializedVersion: 3
          time: 0.3
          value: 0.2
          inSlope: 0
          outSlope: 0
          tangentMode: 0
          weightedMode: 0
          inWeight: 0.33333334
          outWeight: 0.33333334
        - serializedVersion: 3
          time: 1
          value: 0
          inSlope: 0
          outSlope: 0
          tangentMode: 0
          weightedMode: 0
          inWeight: 0.33333334
          outWeight: 0.33333334
        m_PreInfinity: 2
        m_PostInfinity: 2
        m_RotationOrder: 4
      m_checkTexture: 0
      m_matchingTextures: '!3'
      m_isActive: 1
    m_spawnExtensions: []
  - m_name: T_ground_rock_02_A_SM
    m_texture: {fileID: 2800000, guid: 8a7099f7a8c2b164c98d85452d5c6437, type: 3}
    m_textureFileName: T_ground_rock_02_A_SM.tga
    m_normal: {fileID: 2800000, guid: cc9e8612e46995f48b855e16d7a4b3e4, type: 3}
    m_normalFileName: T_ground_rock_01_N.png
    m_sizeX: 5
    m_sizeY: 5
    m_offsetX: 0
    m_offsetY: 0
    m_metalic: 0.48
    m_smoothness: 0
    m_spawnCriteria:
    - m_name: 
      m_checkType: 0
      m_virginTerrain: 0
      m_checkHeight: 1
      m_minHeight: 2
      m_maxHeight: 950
      m_heightFitness:
        serializedVersion: 2
        m_Curve:
        - serializedVersion: 3
          time: 0
          value: 0
          inSlope: 0
          outSlope: 0
          tangentMode: 0
          weightedMode: 0
          inWeight: 0.33333334
          outWeight: 0.33333334
        - serializedVersion: 3
          time: 0.018253967
          value: 0.993007
          inSlope: 0
          outSlope: 0
          tangentMode: 0
          weightedMode: 0
          inWeight: 0.33333334
          outWeight: 0.33333334
        - serializedVersion: 3
          time: 1
          value: 1
          inSlope: 0
          outSlope: 0
          tangentMode: 0
          weightedMode: 0
          inWeight: 0.33333334
          outWeight: 0.33333334
        m_PreInfinity: 2
        m_PostInfinity: 2
        m_RotationOrder: 4
      m_checkSlope: 1
      m_minSlope: 0
      m_maxSlope: 90
      m_slopeFitness:
        serializedVersion: 2
        m_Curve:
        - serializedVersion: 3
          time: 0
          value: 0
          inSlope: 0
          outSlope: 0
          tangentMode: 0
          weightedMode: 0
          inWeight: 0.33333334
          outWeight: 0.33333334
        - serializedVersion: 3
          time: 0.10299824
          value: 0.993007
          inSlope: 0
          outSlope: 0
          tangentMode: 0
          weightedMode: 0
          inWeight: 0.33333334
          outWeight: 0.33333334
        - serializedVersion: 3
          time: 1
          value: 1
          inSlope: 0
          outSlope: 0
          tangentMode: 0
          weightedMode: 0
          inWeight: 0.33333334
          outWeight: 0.33333334
        m_PreInfinity: 2
        m_PostInfinity: 2
        m_RotationOrder: 4
      m_checkProximity: 0
      m_proximityTag: 
      m_minProximity: 0
      m_maxProximity: 100
      m_proximityFitness:
        serializedVersion: 2
        m_Curve:
        - serializedVersion: 3
          time: 0
          value: 1
          inSlope: 0
          outSlope: 0
          tangentMode: 0
          weightedMode: 0
          inWeight: 0.33333334
          outWeight: 0.33333334
        - serializedVersion: 3
          time: 0.3
          value: 0.2
          inSlope: 0
          outSlope: 0
          tangentMode: 0
          weightedMode: 0
          inWeight: 0.33333334
          outWeight: 0.33333334
        - serializedVersion: 3
          time: 1
          value: 0
          inSlope: 0
          outSlope: 0
          tangentMode: 0
          weightedMode: 0
          inWeight: 0.33333334
          outWeight: 0.33333334
        m_PreInfinity: 2
        m_PostInfinity: 2
        m_RotationOrder: 4
      m_checkTexture: 0
      m_matchingTextures: '!3'
      m_isActive: 1
    m_spawnExtensions: []
  - m_name: T_ground_rock_01_A_SM
    m_texture: {fileID: 2800000, guid: 576d0f813a04b4241b8b4cc2cd4a802b, type: 3}
    m_textureFileName: T_ground_rock_01_A_SM.tga
    m_normal: {fileID: 2800000, guid: cc9e8612e46995f48b855e16d7a4b3e4, type: 3}
    m_normalFileName: T_ground_rock_01_N.png
    m_sizeX: 20
    m_sizeY: 20
    m_offsetX: 0
    m_offsetY: 0
    m_metalic: 0.76
    m_smoothness: 0
    m_spawnCriteria:
    - m_name: 
      m_checkType: 0
      m_virginTerrain: 0
      m_checkHeight: 0
      m_minHeight: -50
      m_maxHeight: 950
      m_heightFitness:
        serializedVersion: 2
        m_Curve:
        - serializedVersion: 3
          time: 0
          value: 1
          inSlope: 0
          outSlope: 0
          tangentMode: 0
          weightedMode: 0
          inWeight: 0.33333334
          outWeight: 0.33333334
        - serializedVersion: 3
          time: 1
          value: 1
          inSlope: 0
          outSlope: 0
          tangentMode: 0
          weightedMode: 0
          inWeight: 0.33333334
          outWeight: 0.33333334
        m_PreInfinity: 2
        m_PostInfinity: 2
        m_RotationOrder: 4
      m_checkSlope: 1
      m_minSlope: 15
      m_maxSlope: 90
      m_slopeFitness:
        serializedVersion: 2
        m_Curve:
        - serializedVersion: 3
          time: 0
          value: 0
          inSlope: 18.692362
          outSlope: 1.8503643
          tangentMode: 1
          weightedMode: 0
          inWeight: 0.33333334
          outWeight: 0.33333334
        - serializedVersion: 3
          time: 0.19929403
          value: 1.0069962
          inSlope: 11.354733
          outSlope: 0.047202628
          tangentMode: 1
          weightedMode: 0
          inWeight: 0.33333334
          outWeight: 0.33333334
        - serializedVersion: 3
          time: 1
          value: 1
          inSlope: 0
          outSlope: 0
          tangentMode: 0
          weightedMode: 0
          inWeight: 0.33333334
          outWeight: 0.33333334
        m_PreInfinity: 2
        m_PostInfinity: 2
        m_RotationOrder: 4
      m_checkProximity: 0
      m_proximityTag: 
      m_minProximity: 0
      m_maxProximity: 100
      m_proximityFitness:
        serializedVersion: 2
        m_Curve:
        - serializedVersion: 3
          time: 0
          value: 1
          inSlope: 0
          outSlope: 0
          tangentMode: 0
          weightedMode: 0
          inWeight: 0.33333334
          outWeight: 0.33333334
        - serializedVersion: 3
          time: 0.3
          value: 0.2
          inSlope: 0
          outSlope: 0
          tangentMode: 0
          weightedMode: 0
          inWeight: 0.33333334
          outWeight: 0.33333334
        - serializedVersion: 3
          time: 1
          value: 0
          inSlope: 0
          outSlope: 0
          tangentMode: 0
          weightedMode: 0
          inWeight: 0.33333334
          outWeight: 0.33333334
        m_PreInfinity: 2
        m_PostInfinity: 2
        m_RotationOrder: 4
      m_checkTexture: 0
      m_matchingTextures: '!3'
      m_isActive: 1
    m_spawnExtensions: []
  m_detailPrototypes:
  - m_name: Grass 1 Wide
    m_renderMode: 2
    m_detailProtoype: {fileID: 0}
    m_detailPrototypeFileName: 
    m_detailTexture: {fileID: 2800000, guid: 0d85f7eb5a06e4a4fa7ccbd554dae100, type: 3}
    m_detailTextureFileName: Grass 1 Wide.psd
    m_minWidth: 2.5
    m_maxWidth: 3.7
    m_minHeight: 1
    m_maxHeight: 1.5
    m_noiseSpread: 1
    m_bendFactor: 0.1
    m_healthyColour: {r: 1, g: 1, b: 1, a: 1}
    m_dryColour: {r: 0.5588235, g: 0.5095156, b: 0.42322665, a: 1}
    m_dna:
      m_width: 3.7
      m_height: 1.5
      m_boundsRadius: 3.7
      m_seedThrow: 11.1
      m_minScale: 0.1
      m_maxScale: 1
      m_rndScaleInfluence: 0
      m_extParam: 
      m_protoIdx: 0
    m_spawnCriteria:
    - m_name: 
      m_checkType: 0
      m_virginTerrain: 1
      m_checkHeight: 1
      m_minHeight: 1
      m_maxHeight: 950
      m_heightFitness:
        serializedVersion: 2
        m_Curve:
        - serializedVersion: 3
          time: 0
          value: 0
          inSlope: 0
          outSlope: 0
          tangentMode: 0
          weightedMode: 0
          inWeight: 0.33333334
          outWeight: 0.33333334
        - serializedVersion: 3
          time: 0.011027575
          value: 0.9999949
          inSlope: 0
          outSlope: 0
          tangentMode: 0
          weightedMode: 0
          inWeight: 0.33333334
          outWeight: 0.33333334
        - serializedVersion: 3
          time: 1
          value: 0
          inSlope: 0
          outSlope: 0
          tangentMode: 0
          weightedMode: 0
          inWeight: 0.33333334
          outWeight: 0.33333334
        m_PreInfinity: 2
        m_PostInfinity: 2
        m_RotationOrder: 4
      m_checkSlope: 1
      m_minSlope: 0
      m_maxSlope: 20
      m_slopeFitness:
        serializedVersion: 2
        m_Curve:
        - serializedVersion: 3
          time: 0.0018450185
          value: 0.9965034
          inSlope: 0
          outSlope: 0
          tangentMode: 0
          weightedMode: 0
          inWeight: 0.33333334
          outWeight: 0.33333334
        - serializedVersion: 3
          time: 0.1
          value: 1
          inSlope: 0
          outSlope: 0
          tangentMode: 0
          weightedMode: 0
          inWeight: 0.33333334
          outWeight: 0.33333334
        - serializedVersion: 3
          time: 1
          value: 0
          inSlope: 0
          outSlope: 0
          tangentMode: 0
          weightedMode: 0
          inWeight: 0.33333334
          outWeight: 0.33333334
        m_PreInfinity: 2
        m_PostInfinity: 2
        m_RotationOrder: 4
      m_checkProximity: 0
      m_proximityTag: 
      m_minProximity: 0
      m_maxProximity: 100
      m_proximityFitness:
        serializedVersion: 2
        m_Curve:
        - serializedVersion: 3
          time: 0
          value: 1
          inSlope: 0
          outSlope: 0
          tangentMode: 0
          weightedMode: 0
          inWeight: 0.33333334
          outWeight: 0.33333334
        - serializedVersion: 3
          time: 0.3
          value: 0.2
          inSlope: 0
          outSlope: 0
          tangentMode: 0
          weightedMode: 0
          inWeight: 0.33333334
          outWeight: 0.33333334
        - serializedVersion: 3
          time: 1
          value: 0
          inSlope: 0
          outSlope: 0
          tangentMode: 0
          weightedMode: 0
          inWeight: 0.33333334
          outWeight: 0.33333334
        m_PreInfinity: 2
        m_PostInfinity: 2
        m_RotationOrder: 4
      m_checkTexture: 0
      m_matchingTextures: '!3'
      m_isActive: 1
    m_spawnExtensions: []
  - m_name: Grass 1 Narrow
    m_renderMode: 2
    m_detailProtoype: {fileID: 0}
    m_detailPrototypeFileName: 
    m_detailTexture: {fileID: 2800000, guid: 3de024c95307eac41b262f784890e7bd, type: 3}
    m_detailTextureFileName: Grass 1 Narrow.psd
    m_minWidth: 0.8
    m_maxWidth: 1.5
    m_minHeight: 1.2
    m_maxHeight: 1.9
    m_noiseSpread: 1
    m_bendFactor: 0.1
    m_healthyColour: {r: 1, g: 1, b: 1, a: 1}
    m_dryColour: {r: 0.60294116, g: 0.59379727, b: 0.45663926, a: 1}
    m_dna:
      m_width: 1.5
      m_height: 1.9
      m_boundsRadius: 1.5
      m_seedThrow: 5.7
      m_minScale: 0.1
      m_maxScale: 1
      m_rndScaleInfluence: 0
      m_extParam: 
      m_protoIdx: 1
    m_spawnCriteria:
    - m_name: 
      m_checkType: 0
      m_virginTerrain: 1
      m_checkHeight: 1
      m_minHeight: 1
      m_maxHeight: 950
      m_heightFitness:
        serializedVersion: 2
        m_Curve:
        - serializedVersion: 3
          time: 0
          value: 0
          inSlope: 0
          outSlope: 0
          tangentMode: 0
          weightedMode: 0
          inWeight: 0.33333334
          outWeight: 0.33333334
        - serializedVersion: 3
          time: 0.011027575
          value: 0.9999949
          inSlope: 0
          outSlope: 0
          tangentMode: 0
          weightedMode: 0
          inWeight: 0.33333334
          outWeight: 0.33333334
        - serializedVersion: 3
          time: 1
          value: 0
          inSlope: 0
          outSlope: 0
          tangentMode: 0
          weightedMode: 0
          inWeight: 0.33333334
          outWeight: 0.33333334
        m_PreInfinity: 2
        m_PostInfinity: 2
        m_RotationOrder: 4
      m_checkSlope: 1
      m_minSlope: 0
      m_maxSlope: 45
      m_slopeFitness:
        serializedVersion: 2
        m_Curve:
        - serializedVersion: 3
          time: 0
          value: 0
          inSlope: 0
          outSlope: 0
          tangentMode: 0
          weightedMode: 0
          inWeight: 0.33333334
          outWeight: 0.33333334
        - serializedVersion: 3
          time: 0.048339482
          value: 1
          inSlope: 0
          outSlope: 0
          tangentMode: 0
          weightedMode: 0
          inWeight: 0.33333334
          outWeight: 0.33333334
        - serializedVersion: 3
          time: 0.8214434
          value: 0.8345053
          inSlope: -0.16761757
          outSlope: -1.5443563
          tangentMode: 1
          weightedMode: 0
          inWeight: 0.33333334
          outWeight: 0.33333334
        - serializedVersion: 3
          time: 1
          value: 0
          inSlope: 0
          outSlope: 0
          tangentMode: 0
          weightedMode: 0
          inWeight: 0.33333334
          outWeight: 0.33333334
        m_PreInfinity: 2
        m_PostInfinity: 2
        m_RotationOrder: 4
      m_checkProximity: 0
      m_proximityTag: 
      m_minProximity: 0
      m_maxProximity: 100
      m_proximityFitness:
        serializedVersion: 2
        m_Curve:
        - serializedVersion: 3
          time: 0
          value: 1
          inSlope: 0
          outSlope: 0
          tangentMode: 0
          weightedMode: 0
          inWeight: 0.33333334
          outWeight: 0.33333334
        - serializedVersion: 3
          time: 0.3
          value: 0.2
          inSlope: 0
          outSlope: 0
          tangentMode: 0
          weightedMode: 0
          inWeight: 0.33333334
          outWeight: 0.33333334
        - serializedVersion: 3
          time: 1
          value: 0
          inSlope: 0
          outSlope: 0
          tangentMode: 0
          weightedMode: 0
          inWeight: 0.33333334
          outWeight: 0.33333334
        m_PreInfinity: 2
        m_PostInfinity: 2
        m_RotationOrder: 4
      m_checkTexture: 0
      m_matchingTextures: '!3'
      m_isActive: 1
    m_spawnExtensions: []
  - m_name: Grass 2
    m_renderMode: 2
    m_detailProtoype: {fileID: 0}
    m_detailPrototypeFileName: 
    m_detailTexture: {fileID: 2800000, guid: bb503aada258abc469adf32321580a76, type: 3}
    m_detailTextureFileName: Grass 2.psd
    m_minWidth: 0.9
    m_maxWidth: 1.5
    m_minHeight: 0.8
    m_maxHeight: 1.3
    m_noiseSpread: 1
    m_bendFactor: 0.1
    m_healthyColour: {r: 0.9687893, g: 0.97794116, b: 0.9276059, a: 1}
    m_dryColour: {r: 0.2901961, g: 0.3803922, b: 0.18431373, a: 1}
    m_dna:
      m_width: 1.5
      m_height: 1.3
      m_boundsRadius: 1.5
      m_seedThrow: 4.5
      m_minScale: 0.1
      m_maxScale: 1
      m_rndScaleInfluence: 0
      m_extParam: 
      m_protoIdx: 2
    m_spawnCriteria:
    - m_name: 
      m_checkType: 0
      m_virginTerrain: 1
      m_checkHeight: 1
      m_minHeight: 1
      m_maxHeight: 950
      m_heightFitness:
        serializedVersion: 2
        m_Curve:
        - serializedVersion: 3
          time: 0
          value: 0
          inSlope: 0
          outSlope: 0
          tangentMode: 0
          weightedMode: 0
          inWeight: 0.33333334
          outWeight: 0.33333334
        - serializedVersion: 3
          time: 0.0114391185
          value: 1.0068952
          inSlope: 0
          outSlope: 0
          tangentMode: 0
          weightedMode: 0
          inWeight: 0.33333334
          outWeight: 0.33333334
        - serializedVersion: 3
          time: 1
          value: 0
          inSlope: 0
          outSlope: 0
          tangentMode: 0
          weightedMode: 0
          inWeight: 0.33333334
          outWeight: 0.33333334
        m_PreInfinity: 2
        m_PostInfinity: 2
        m_RotationOrder: 4
      m_checkSlope: 1
      m_minSlope: 0
      m_maxSlope: 30
      m_slopeFitness:
        serializedVersion: 2
        m_Curve:
        - serializedVersion: 3
          time: 0
          value: 0
          inSlope: 0
          outSlope: 0
          tangentMode: 0
          weightedMode: 0
          inWeight: 0.33333334
          outWeight: 0.33333334
        - serializedVersion: 3
          time: 0.016974173
          value: 1.0033498
          inSlope: 0
          outSlope: 0
          tangentMode: 0
          weightedMode: 0
          inWeight: 0.33333334
          outWeight: 0.33333334
        - serializedVersion: 3
          time: 0.75949615
          value: 0.7607432
          inSlope: -0.62223196
          outSlope: -1.5839934
          tangentMode: 1
          weightedMode: 0
          inWeight: 0.33333334
          outWeight: 0.33333334
        - serializedVersion: 3
          time: 1
          value: 0
          inSlope: 0
          outSlope: 0
          tangentMode: 0
          weightedMode: 0
          inWeight: 0.33333334
          outWeight: 0.33333334
        m_PreInfinity: 2
        m_PostInfinity: 2
        m_RotationOrder: 4
      m_checkProximity: 0
      m_proximityTag: 
      m_minProximity: 0
      m_maxProximity: 100
      m_proximityFitness:
        serializedVersion: 2
        m_Curve:
        - serializedVersion: 3
          time: 0
          value: 1
          inSlope: 0
          outSlope: 0
          tangentMode: 0
          weightedMode: 0
          inWeight: 0.33333334
          outWeight: 0.33333334
        - serializedVersion: 3
          time: 0.3
          value: 0.2
          inSlope: 0
          outSlope: 0
          tangentMode: 0
          weightedMode: 0
          inWeight: 0.33333334
          outWeight: 0.33333334
        - serializedVersion: 3
          time: 1
          value: 0
          inSlope: 0
          outSlope: 0
          tangentMode: 0
          weightedMode: 0
          inWeight: 0.33333334
          outWeight: 0.33333334
        m_PreInfinity: 2
        m_PostInfinity: 2
        m_RotationOrder: 4
      m_checkTexture: 0
      m_matchingTextures: '!3'
      m_isActive: 1
    m_spawnExtensions: []
  - m_name: Grass 3
    m_renderMode: 2
    m_detailProtoype: {fileID: 0}
    m_detailPrototypeFileName: 
    m_detailTexture: {fileID: 2800000, guid: 90eb7b7804ec2f44781a3ef02ae28db4, type: 3}
    m_detailTextureFileName: Grass 3.psd
    m_minWidth: 0.6
    m_maxWidth: 1.5
    m_minHeight: 0.6
    m_maxHeight: 1.5
    m_noiseSpread: 1
    m_bendFactor: 0.1
    m_healthyColour: {r: 0.92009085, g: 0.9338235, b: 0.7758975, a: 1}
    m_dryColour: {r: 0.40784317, g: 0.427451, b: 0.3647059, a: 1}
    m_dna:
      m_width: 1.5
      m_height: 1.5
      m_boundsRadius: 1.5
      m_seedThrow: 4.5
      m_minScale: 0.1
      m_maxScale: 1
      m_rndScaleInfluence: 0
      m_extParam: 
      m_protoIdx: 3
    m_spawnCriteria:
    - m_name: 
      m_checkType: 0
      m_virginTerrain: 1
      m_checkHeight: 1
      m_minHeight: 1
      m_maxHeight: 950
      m_heightFitness:
        serializedVersion: 2
        m_Curve:
        - serializedVersion: 3
          time: 0
          value: 0.9999998
          inSlope: 0
          outSlope: 0
          tangentMode: 0
          weightedMode: 0
          inWeight: 0.33333334
          outWeight: 0.33333334
        - serializedVersion: 3
          time: 1
          value: -0.001267314
          inSlope: 0
          outSlope: 0
          tangentMode: 0
          weightedMode: 0
          inWeight: 0.33333334
          outWeight: 0.33333334
        m_PreInfinity: 2
        m_PostInfinity: 2
        m_RotationOrder: 4
      m_checkSlope: 1
      m_minSlope: 0
      m_maxSlope: 34
      m_slopeFitness:
        serializedVersion: 2
        m_Curve:
        - serializedVersion: 3
          time: 0
          value: 0
          inSlope: 0
          outSlope: 0
          tangentMode: 0
          weightedMode: 0
          inWeight: 0.33333334
          outWeight: 0.33333334
        - serializedVersion: 3
          time: 0.046494465
          value: 1
          inSlope: 0
          outSlope: 0
          tangentMode: 0
          weightedMode: 0
          inWeight: 0.33333334
          outWeight: 0.33333334
        - serializedVersion: 3
          time: 1
          value: 0
          inSlope: 0
          outSlope: 0
          tangentMode: 0
          weightedMode: 0
          inWeight: 0.33333334
          outWeight: 0.33333334
        m_PreInfinity: 2
        m_PostInfinity: 2
        m_RotationOrder: 4
      m_checkProximity: 0
      m_proximityTag: 
      m_minProximity: 0
      m_maxProximity: 100
      m_proximityFitness:
        serializedVersion: 2
        m_Curve:
        - serializedVersion: 3
          time: 0
          value: 1
          inSlope: 0
          outSlope: 0
          tangentMode: 0
          weightedMode: 0
          inWeight: 0.33333334
          outWeight: 0.33333334
        - serializedVersion: 3
          time: 0.3
          value: 0.2
          inSlope: 0
          outSlope: 0
          tangentMode: 0
          weightedMode: 0
          inWeight: 0.33333334
          outWeight: 0.33333334
        - serializedVersion: 3
          time: 1
          value: 0
          inSlope: 0
          outSlope: 0
          tangentMode: 0
          weightedMode: 0
          inWeight: 0.33333334
          outWeight: 0.33333334
        m_PreInfinity: 2
        m_PostInfinity: 2
        m_RotationOrder: 4
      m_checkTexture: 0
      m_matchingTextures: '!3'
      m_isActive: 1
    m_spawnExtensions: []
  - m_name: Fern
    m_renderMode: 2
    m_detailProtoype: {fileID: 0}
    m_detailPrototypeFileName: 
    m_detailTexture: {fileID: 2800000, guid: 507afdee9be3847478166c60949a982c, type: 3}
    m_detailTextureFileName: Fern.psd
    m_minWidth: 0.7
    m_maxWidth: 1.2
    m_minHeight: 0.8
    m_maxHeight: 1.4
    m_noiseSpread: 1
    m_bendFactor: 0.1
    m_healthyColour: {r: 0.8161765, g: 0.8111354, b: 0.69014925, a: 1}
    m_dryColour: {r: 0.32156864, g: 0.34901962, b: 0.27058825, a: 1}
    m_dna:
      m_width: 1.2
      m_height: 1.4
      m_boundsRadius: 1.2
      m_seedThrow: 4.2
      m_minScale: 0.1
      m_maxScale: 1
      m_rndScaleInfluence: 0
      m_extParam: 
      m_protoIdx: 4
    m_spawnCriteria:
    - m_name: 
      m_checkType: 0
      m_virginTerrain: 1
      m_checkHeight: 1
      m_minHeight: -1
      m_maxHeight: 950
      m_heightFitness:
        serializedVersion: 2
        m_Curve:
        - serializedVersion: 3
          time: 0
          value: 0.9999998
          inSlope: 0
          outSlope: 0
          tangentMode: 0
          weightedMode: 0
          inWeight: 0.33333334
          outWeight: 0.33333334
        - serializedVersion: 3
          time: 1
          value: -0.001267314
          inSlope: 0
          outSlope: 0
          tangentMode: 0
          weightedMode: 0
          inWeight: 0.33333334
          outWeight: 0.33333334
        m_PreInfinity: 2
        m_PostInfinity: 2
        m_RotationOrder: 4
      m_checkSlope: 1
      m_minSlope: 0
      m_maxSlope: 35
      m_slopeFitness:
        serializedVersion: 2
        m_Curve:
        - serializedVersion: 3
          time: 0
          value: 0.9965034
          inSlope: 0
          outSlope: 0
          tangentMode: 0
          weightedMode: 0
          inWeight: 0.33333334
          outWeight: 0.33333334
        - serializedVersion: 3
          time: 0.039114393
          value: 1
          inSlope: 0
          outSlope: 0
          tangentMode: 0
          weightedMode: 0
          inWeight: 0.33333334
          outWeight: 0.33333334
        - serializedVersion: 3
          time: 1
          value: 0
          inSlope: 0
          outSlope: 0
          tangentMode: 0
          weightedMode: 0
          inWeight: 0.33333334
          outWeight: 0.33333334
        m_PreInfinity: 2
        m_PostInfinity: 2
        m_RotationOrder: 4
      m_checkProximity: 0
      m_proximityTag: 
      m_minProximity: 0
      m_maxProximity: 100
      m_proximityFitness:
        serializedVersion: 2
        m_Curve:
        - serializedVersion: 3
          time: 0
          value: 1
          inSlope: 0
          outSlope: 0
          tangentMode: 0
          weightedMode: 0
          inWeight: 0.33333334
          outWeight: 0.33333334
        - serializedVersion: 3
          time: 0.3
          value: 0.2
          inSlope: 0
          outSlope: 0
          tangentMode: 0
          weightedMode: 0
          inWeight: 0.33333334
          outWeight: 0.33333334
        - serializedVersion: 3
          time: 1
          value: 0
          inSlope: 0
          outSlope: 0
          tangentMode: 0
          weightedMode: 0
          inWeight: 0.33333334
          outWeight: 0.33333334
        m_PreInfinity: 2
        m_PostInfinity: 2
        m_RotationOrder: 4
      m_checkTexture: 0
      m_matchingTextures: '!3'
      m_isActive: 1
    m_spawnExtensions: []
  - m_name: Flowers Purple
    m_renderMode: 2
    m_detailProtoype: {fileID: 0}
    m_detailPrototypeFileName: 
    m_detailTexture: {fileID: 2800000, guid: af54753c09d287841a3ba8584905e056, type: 3}
    m_detailTextureFileName: Flowers Purple.psd
    m_minWidth: 0.5
    m_maxWidth: 1
    m_minHeight: 0.6
    m_maxHeight: 1.2
    m_noiseSpread: 1
    m_bendFactor: 0.1
    m_healthyColour: {r: 0.7809797, g: 0.78676474, b: 0.68841916, a: 1}
    m_dryColour: {r: 0.41176474, g: 0.47450984, b: 0.34117648, a: 1}
    m_dna:
      m_width: 1
      m_height: 1.2
      m_boundsRadius: 1
      m_seedThrow: 3.6000001
      m_minScale: 0.1
      m_maxScale: 1
      m_rndScaleInfluence: 0
      m_extParam: 
      m_protoIdx: 5
    m_spawnCriteria:
    - m_name: 
      m_checkType: 0
      m_virginTerrain: 1
      m_checkHeight: 1
      m_minHeight: 2
      m_maxHeight: 950
      m_heightFitness:
        serializedVersion: 2
        m_Curve:
        - serializedVersion: 3
          time: 0
          value: 0
          inSlope: 0
          outSlope: 0
          tangentMode: 0
          weightedMode: 0
          inWeight: 0.33333334
          outWeight: 0.33333334
        - serializedVersion: 3
          time: 0.011439117
          value: 1.0070052
          inSlope: 0
          outSlope: 0
          tangentMode: 0
          weightedMode: 0
          inWeight: 0.33333334
          outWeight: 0.33333334
        - serializedVersion: 3
          time: 1
          value: 0
          inSlope: 0
          outSlope: 0
          tangentMode: 0
          weightedMode: 0
          inWeight: 0.33333334
          outWeight: 0.33333334
        m_PreInfinity: 2
        m_PostInfinity: 2
        m_RotationOrder: 4
      m_checkSlope: 1
      m_minSlope: 0
      m_maxSlope: 36
      m_slopeFitness:
        serializedVersion: 2
        m_Curve:
        - serializedVersion: 3
          time: 0
          value: 0
          inSlope: 0
          outSlope: 0
          tangentMode: 0
          weightedMode: 0
          inWeight: 0.33333334
          outWeight: 0.33333334
        - serializedVersion: 3
          time: 0.04464945
          value: 0.9999878
          inSlope: 0
          outSlope: 0
          tangentMode: 0
          weightedMode: 0
          inWeight: 0.33333334
          outWeight: 0.33333334
        - serializedVersion: 3
          time: 1
          value: 0
          inSlope: 0
          outSlope: 0
          tangentMode: 0
          weightedMode: 0
          inWeight: 0.33333334
          outWeight: 0.33333334
        m_PreInfinity: 2
        m_PostInfinity: 2
        m_RotationOrder: 4
      m_checkProximity: 0
      m_proximityTag: 
      m_minProximity: 0
      m_maxProximity: 100
      m_proximityFitness:
        serializedVersion: 2
        m_Curve:
        - serializedVersion: 3
          time: 0
          value: 1
          inSlope: 0
          outSlope: 0
          tangentMode: 0
          weightedMode: 0
          inWeight: 0.33333334
          outWeight: 0.33333334
        - serializedVersion: 3
          time: 0.3
          value: 0.2
          inSlope: 0
          outSlope: 0
          tangentMode: 0
          weightedMode: 0
          inWeight: 0.33333334
          outWeight: 0.33333334
        - serializedVersion: 3
          time: 1
          value: 0
          inSlope: 0
          outSlope: 0
          tangentMode: 0
          weightedMode: 0
          inWeight: 0.33333334
          outWeight: 0.33333334
        m_PreInfinity: 2
        m_PostInfinity: 2
        m_RotationOrder: 4
      m_checkTexture: 0
      m_matchingTextures: '!3'
      m_isActive: 1
    m_spawnExtensions: []
  - m_name: Flowers Red
    m_renderMode: 2
    m_detailProtoype: {fileID: 0}
    m_detailPrototypeFileName: 
    m_detailTexture: {fileID: 2800000, guid: 2902993231d3d664abf44cfda4fe209a, type: 3}
    m_detailTextureFileName: Flowers Red.psd
    m_minWidth: 0.5
    m_maxWidth: 1
    m_minHeight: 0.7
    m_maxHeight: 1.4
    m_noiseSpread: 1
    m_bendFactor: 0.1
    m_healthyColour: {r: 0.8350184, g: 0.875, b: 0.6884191, a: 1}
    m_dryColour: {r: 0.45098042, g: 0.43921572, b: 0.34901962, a: 1}
    m_dna:
      m_width: 1
      m_height: 1.4
      m_boundsRadius: 1
      m_seedThrow: 4.2
      m_minScale: 0.1
      m_maxScale: 1
      m_rndScaleInfluence: 0
      m_extParam: 
      m_protoIdx: 6
    m_spawnCriteria:
    - m_name: 
      m_checkType: 0
      m_virginTerrain: 1
      m_checkHeight: 1
      m_minHeight: 2
      m_maxHeight: 950
      m_heightFitness:
        serializedVersion: 2
        m_Curve:
        - serializedVersion: 3
          time: 0
          value: 0
          inSlope: 0
          outSlope: 0
          tangentMode: 0
          weightedMode: 0
          inWeight: 0.33333334
          outWeight: 0.33333334
        - serializedVersion: 3
          time: 0.024169743
          value: 1.0104895
          inSlope: 0
          outSlope: 0
          tangentMode: 0
          weightedMode: 0
          inWeight: 0.33333334
          outWeight: 0.33333334
        - serializedVersion: 3
          time: 1
          value: 0
          inSlope: 0
          outSlope: 0
          tangentMode: 0
          weightedMode: 0
          inWeight: 0.33333334
          outWeight: 0.33333334
        m_PreInfinity: 2
        m_PostInfinity: 2
        m_RotationOrder: 4
      m_checkSlope: 1
      m_minSlope: 1.5390637
      m_maxSlope: 40.76444
      m_slopeFitness:
        serializedVersion: 2
        m_Curve:
        - serializedVersion: 3
          time: 0
          value: 0
          inSlope: 0
          outSlope: 0
          tangentMode: 0
          weightedMode: 0
          inWeight: 0.33333334
          outWeight: 0.33333334
        - serializedVersion: 3
          time: 0.05
          value: 1
          inSlope: 0
          outSlope: 0
          tangentMode: 0
          weightedMode: 0
          inWeight: 0.33333334
          outWeight: 0.33333334
        - serializedVersion: 3
          time: 1
          value: 0
          inSlope: 0
          outSlope: 0
          tangentMode: 0
          weightedMode: 0
          inWeight: 0.33333334
          outWeight: 0.33333334
        m_PreInfinity: 2
        m_PostInfinity: 2
        m_RotationOrder: 4
      m_checkProximity: 0
      m_proximityTag: 
      m_minProximity: 0
      m_maxProximity: 100
      m_proximityFitness:
        serializedVersion: 2
        m_Curve:
        - serializedVersion: 3
          time: 0
          value: 1
          inSlope: 0
          outSlope: 0
          tangentMode: 0
          weightedMode: 0
          inWeight: 0.33333334
          outWeight: 0.33333334
        - serializedVersion: 3
          time: 0.3
          value: 0.2
          inSlope: 0
          outSlope: 0
          tangentMode: 0
          weightedMode: 0
          inWeight: 0.33333334
          outWeight: 0.33333334
        - serializedVersion: 3
          time: 1
          value: 0
          inSlope: 0
          outSlope: 0
          tangentMode: 0
          weightedMode: 0
          inWeight: 0.33333334
          outWeight: 0.33333334
        m_PreInfinity: 2
        m_PostInfinity: 2
        m_RotationOrder: 4
      m_checkTexture: 0
      m_matchingTextures: '!3'
      m_isActive: 1
    m_spawnExtensions: []
  m_treePrototypes:
  - m_name: Broadleaf_Desktop
    m_desktopPrefab: {fileID: 100000, guid: c91c1eb85782d5748ace27eb4d7415bb, type: 3}
    m_desktopPrefabFileName: Broadleaf_Desktop.spm
    m_mobilePrefab: {fileID: 100000, guid: c91c1eb85782d5748ace27eb4d7415bb, type: 3}
    m_mobilePrefabFileName: Broadleaf_Desktop.spm
    m_bendFactor: 0
    m_healthyColour: {r: 1, g: 1, b: 1, a: 1}
    m_dryColour: {r: 1, g: 1, b: 1, a: 1}
    m_dna:
      m_width: 25.074068
      m_height: 23.399921
      m_boundsRadius: 6.268517
      m_seedThrow: 35.099884
      m_minScale: 0.5
      m_maxScale: 1.1
      m_rndScaleInfluence: 0
      m_extParam: 
      m_protoIdx: 0
    m_spawnCriteria:
    - m_name: 
      m_checkType: 1
      m_virginTerrain: 1
      m_checkHeight: 1
      m_minHeight: 1
      m_maxHeight: 950
      m_heightFitness:
        serializedVersion: 2
        m_Curve:
        - serializedVersion: 3
          time: 0
          value: 1
          inSlope: 0
          outSlope: 0
          tangentMode: 0
          weightedMode: 0
          inWeight: 0.33333334
          outWeight: 0.33333334
        - serializedVersion: 3
          time: 1
          value: 0
          inSlope: 0
          outSlope: 0
          tangentMode: 0
          weightedMode: 0
          inWeight: 0.33333334
          outWeight: 0.33333334
        m_PreInfinity: 2
        m_PostInfinity: 2
        m_RotationOrder: 4
      m_checkSlope: 1
      m_minSlope: 0
      m_maxSlope: 25
      m_slopeFitness:
        serializedVersion: 2
        m_Curve:
        - serializedVersion: 3
          time: 0
          value: 1
          inSlope: 0
          outSlope: 0
          tangentMode: 0
          weightedMode: 0
          inWeight: 0.33333334
          outWeight: 0.33333334
        - serializedVersion: 3
          time: 1
          value: 0
          inSlope: 0
          outSlope: 0
          tangentMode: 0
          weightedMode: 0
          inWeight: 0.33333334
          outWeight: 0.33333334
        m_PreInfinity: 2
        m_PostInfinity: 2
        m_RotationOrder: 4
      m_checkProximity: 0
      m_proximityTag: 
      m_minProximity: 0
      m_maxProximity: 100
      m_proximityFitness:
        serializedVersion: 2
        m_Curve:
        - serializedVersion: 3
          time: 0
          value: 1
          inSlope: 0
          outSlope: 0
          tangentMode: 0
          weightedMode: 0
          inWeight: 0.33333334
          outWeight: 0.33333334
        - serializedVersion: 3
          time: 0.3
          value: 0.2
          inSlope: 0
          outSlope: 0
          tangentMode: 0
          weightedMode: 0
          inWeight: 0.33333334
          outWeight: 0.33333334
        - serializedVersion: 3
          time: 1
          value: 0
          inSlope: 0
          outSlope: 0
          tangentMode: 0
          weightedMode: 0
          inWeight: 0.33333334
          outWeight: 0.33333334
        m_PreInfinity: 2
        m_PostInfinity: 2
        m_RotationOrder: 4
      m_checkTexture: 0
      m_matchingTextures: '!3'
      m_isActive: 1
    m_spawnExtensions: []
  - m_name: Conifer_Desktop
    m_desktopPrefab: {fileID: 100016, guid: 469edab27ab6d004d84af2c4a851bd7f, type: 3}
    m_desktopPrefabFileName: Conifer_Desktop.spm
    m_mobilePrefab: {fileID: 100016, guid: 469edab27ab6d004d84af2c4a851bd7f, type: 3}
    m_mobilePrefabFileName: Conifer_Desktop.spm
    m_bendFactor: 0
    m_healthyColour: {r: 1, g: 1, b: 1, a: 1}
    m_dryColour: {r: 1, g: 1, b: 1, a: 1}
    m_dna:
      m_width: 13.559455
      m_height: 30.658916
      m_boundsRadius: 3.3898637
      m_seedThrow: 45.988373
      m_minScale: 0.7
      m_maxScale: 1.1
      m_rndScaleInfluence: 0
      m_extParam: 
      m_protoIdx: 1
    m_spawnCriteria:
    - m_name: 
      m_checkType: 1
      m_virginTerrain: 1
      m_checkHeight: 1
      m_minHeight: 1.2
      m_maxHeight: 950
      m_heightFitness:
        serializedVersion: 2
        m_Curve:
        - serializedVersion: 3
          time: 0
          value: 1
          inSlope: 0
          outSlope: 0
          tangentMode: 0
          weightedMode: 0
          inWeight: 0.33333334
          outWeight: 0.33333334
        - serializedVersion: 3
          time: 1
          value: 0
          inSlope: 0
          outSlope: 0
          tangentMode: 0
          weightedMode: 0
          inWeight: 0.33333334
          outWeight: 0.33333334
        m_PreInfinity: 2
        m_PostInfinity: 2
        m_RotationOrder: 4
      m_checkSlope: 1
      m_minSlope: 0
      m_maxSlope: 30
      m_slopeFitness:
        serializedVersion: 2
        m_Curve:
        - serializedVersion: 3
          time: 0
          value: 1
          inSlope: 0
          outSlope: 0
          tangentMode: 0
          weightedMode: 0
          inWeight: 0.33333334
          outWeight: 0.33333334
        - serializedVersion: 3
          time: 1
          value: 0
          inSlope: 0
          outSlope: 0
          tangentMode: 0
          weightedMode: 0
          inWeight: 0.33333334
          outWeight: 0.33333334
        m_PreInfinity: 2
        m_PostInfinity: 2
        m_RotationOrder: 4
      m_checkProximity: 0
      m_proximityTag: 
      m_minProximity: 0
      m_maxProximity: 100
      m_proximityFitness:
        serializedVersion: 2
        m_Curve:
        - serializedVersion: 3
          time: 0
          value: 1
          inSlope: 0
          outSlope: 0
          tangentMode: 0
          weightedMode: 0
          inWeight: 0.33333334
          outWeight: 0.33333334
        - serializedVersion: 3
          time: 0.3
          value: 0.2
          inSlope: 0
          outSlope: 0
          tangentMode: 0
          weightedMode: 0
          inWeight: 0.33333334
          outWeight: 0.33333334
        - serializedVersion: 3
          time: 1
          value: 0
          inSlope: 0
          outSlope: 0
          tangentMode: 0
          weightedMode: 0
          inWeight: 0.33333334
          outWeight: 0.33333334
        m_PreInfinity: 2
        m_PostInfinity: 2
        m_RotationOrder: 4
      m_checkTexture: 0
      m_matchingTextures: '!3'
      m_isActive: 1
    m_spawnExtensions: []
  m_gameObjectPrototypes: []
